{
    "version": 1,
    "general": {
        "color": "Green",
        "columns": 40,
        "seconds": 120
    },
    "levelPortalIn": {
        "column": 34,
        "row": 11,
        "height": 6
    },
    "levelPortalOut": {
        "column": 34,
        "row": 1,
        "height": 6
    },
    "boardItems": [
        {
            "kind": "LightPlatform",
            "column": 0,
            "row": 0,
            "width": 40,
            "height": 1
        },
        {
            "kind": "RightWall",
            "column": 39,
            "row": 1,
            "width": 1,
            "height": 16
        },
        {
            "kind": "Void",
            "column": 39,
            "row": 7,
            "width": 1,
            "height": 4
        },
        {
            "kind": "BottomWall",
            "column": 6,
            "row": 7,
            "width": 33,
            "height": 1
        },
        {
            "kind": "BottomWall",
            "column": 15,
            "row": 5,
            "width": 13,
            "height": 1
        },
        {
            "kind": "Void",
            "column": 15,
            "row": 6,
            "width": 13,
            "height": 2
        },
        {
            "kind": "RightWall",
            "column": 15,
            "row": 6,
            "width": 1,
            "height": 1
        },
        {
            "kind": "LeftWall",
            "column": 27,
            "row": 6,
            "width": 1,
            "height": 1
        },
        {
            "kind": "RightWall",
            "column": 8,
            "row": 8,
            "width": 1,
            "height": 2
        },
        {
            "kind": "Void",
            "column": 9,
            "row": 8,
            "width": 31,
            "height": 2
        },
        {
            "kind": "TopWall",
            "column": 8,
            "row": 10,
            "width": 31,
            "height": 1
        },
        {
            "kind": "Void",
            "column": 12,
            "row": 10,
            "width": 7,
            "height": 1
        },
        {
            "kind": "TopWallWithCorners",
            "column": 12,
            "row": 11,
            "width": 7,
            "height": 1
        },
        {
            "kind": "Void",
            "column": 23,
            "row": 10,
            "width": 7,
            "height": 1
        },
        {
            "kind": "TopWallWithCorners",
            "column": 23,
            "row": 11,
            "width": 7,
            "height": 1
        },
        {
            "kind": "LeftWall",
            "column": 0,
            "row": 1,
            "width": 1,
            "height": 16
        },
        {
            "kind": "Wall1x1",
            "column": 4,
            "row": 15,
            "width": 1,
            "height": 2
        },
        {
            "kind": "Void",
            "column": 0,
            "row": 17,
            "width": 40,
            "height": 1
        },
        {
            "kind": "BottomWall",
            "column": 12,
            "row": 16,
            "width": 7,
            "height": 1
        },
        {
            "kind": "BottomWall",
            "column": 23,
            "row": 16,
            "width": 7,
            "height": 1
        },
        {
            "kind": "BottomWall",
            "column": 1,
            "row": 17,
            "width": 38,
            "height": 1
        },
        {
            "kind": "Void",
            "column": 13,
            "row": 17,
            "width": 5,
            "height": 1
        },
        {
            "kind": "LeftWall",
            "column": 12,
            "row": 17,
            "width": 1,
            "height": 1
        },
        {
            "kind": "RightWall",
            "column": 18,
            "row": 17,
            "width": 1,
            "height": 1
        },
        {
            "kind": "Void",
            "column": 24,
            "row": 17,
            "width": 5,
            "height": 1
        },
        {
            "kind": "LeftWall",
            "column": 23,
            "row": 17,
            "width": 1,
            "height": 1
        },
        {
            "kind": "RightWall",
            "column": 29,
            "row": 17,
            "width": 1,
            "height": 1
        },
        {
            "kind": "Ladder",
            "column": 6,
            "row": 8,
            "width": 2,
            "height": 9
        },
        {
            "kind": "Ladder",
            "column": 1,
            "row": 1,
            "width": 2,
            "height": 16
        },
        {
            "kind": "BottomSpikes",
            "column": 4,
            "row": 14,
            "width": 1,
            "height": 1
        },
        {
            "kind": "RightSpikes",
            "column": 3,
            "row": 16,
            "width": 1,
            "height": 1
        },
        {
            "kind": "LeftSpikes",
            "column": 5,
            "row": 16,
            "width": 1,
            "height": 1
        }
    ],
    "movingPlatforms": [],
    "enemies": [],
    "lasers": [],
    "states": [],
    "forceFields": [
        {
            "methodKind": "Time",
            "invertedActivation": false,
            "timeResist": false,
            "column": 28,
            "row": 12,
            "height": 4,
            "mask": 10,
            "state": 0
        },
        {
            "methodKind": "Time",
            "invertedActivation": true,
            "timeResist": false,
            "column": 24,
            "row": 12,
            "height": 4,
            "mask": 12,
            "state": 0
        },
        {
            "methodKind": "Time",
            "invertedActivation": false,
            "timeResist": false,
            "column": 16,
            "row": 12,
            "height": 4,
            "mask": 8,
            "state": 0
        },
        {
            "methodKind": "Time",
            "invertedActivation": true,
            "timeResist": true,
            "column": 14,
            "row": 12,
            "height": 4,
            "mask": 8,
            "state": 0
        },
        {
            "methodKind": "Time",
            "invertedActivation": false,
            "timeResist": true,
            "column": 4,
            "row": 1,
            "height": 13,
            "mask": 12,
            "state": 0
        },
        {
            "methodKind": "Time",
            "invertedActivation": false,
            "timeResist": true,
            "column": 19,
            "row": 1,
            "height": 4,
            "mask": 12,
            "state": 0
        },
        {
            "methodKind": "Time",
            "invertedActivation": false,
            "timeResist": false,
            "column": 21,
            "row": 1,
            "height": 4,
            "mask": 28,
            "state": 0
        },
        {
            "methodKind": "Time",
            "invertedActivation": true,
            "timeResist": true,
            "column": 23,
            "row": 1,
            "height": 4,
            "mask": 8,
            "state": 0
        }
    ],
    "disappearingPlatforms": [],
    "buttons": [],
    "hourglasses": [
        {
            "timeResist": true,
            "column": 31,
            "row": 13
        },
        {
            "timeResist": false,
            "column": 20,
            "row": 13
        },
        {
            "timeResist": true,
            "column": 9,
            "row": 13
        },
        {
            "timeResist": false,
            "column": 7,
            "row": 3
        },
        {
            "timeResist": false,
            "column": 11,
            "row": 2
        },
        {
            "timeResist": false,
            "column": 29,
            "row": 2
        },
        {
            "timeResist": false,
            "column": 33,
            "row": 3
        }
    ],
    "portals": []
}