{
    "version": 1,
    "general": {
        "color": "Violet",
        "columns": 40,
        "seconds": 120
    },
    "levelPortalIn": {
        "column": 14,
        "row": 9,
        "height": 8
    },
    "levelPortalOut": {
        "column": 24,
        "row": 9,
        "height": 8
    },
    "boardItems": [
        {
            "kind": "LightPlatform",
            "column": 0,
            "row": 0,
            "width": 40,
            "height": 1
        },
        {
            "kind": "LeftWall",
            "column": 0,
            "row": 1,
            "width": 1,
            "height": 16
        },
        {
            "kind": "Void",
            "column": 0,
            "row": 17,
            "width": 1,
            "height": 1
        },
        {
            "kind": "BottomWall",
            "column": 1,
            "row": 17,
            "width": 31,
            "height": 1
        },
        {
            "kind": "Platform",
            "column": 1,
            "row": 8,
            "width": 30,
            "height": 1
        },
        {
            "kind": "Ladder",
            "column": 5,
            "row": 9,
            "width": 2,
            "height": 8
        },
        {
            "kind": "Platform",
            "column": 18,
            "row": 11,
            "width": 4,
            "height": 1
        },
        {
            "kind": "Platform",
            "column": 20,
            "row": 14,
            "width": 4,
            "height": 1
        },
        {
            "kind": "Chain",
            "column": 23,
            "row": 1,
            "width": 1,
            "height": 4
        },
        {
            "kind": "Chain",
            "column": 28,
            "row": 1,
            "width": 1,
            "height": 4
        },
        {
            "kind": "Platform",
            "column": 22,
            "row": 5,
            "width": 8,
            "height": 1
        },
        {
            "kind": "Void",
            "column": 38,
            "row": 3,
            "width": 2,
            "height": 15
        },
        {
            "kind": "Void",
            "column": 36,
            "row": 7,
            "width": 2,
            "height": 11
        },
        {
            "kind": "Void",
            "column": 34,
            "row": 11,
            "width": 2,
            "height": 7
        },
        {
            "kind": "Void",
            "column": 32,
            "row": 15,
            "width": 2,
            "height": 3
        },
        {
            "kind": "RightWall",
            "column": 39,
            "row": 1,
            "width": 1,
            "height": 2
        },
        {
            "kind": "RightWall",
            "column": 38,
            "row": 3,
            "width": 1,
            "height": 2
        },
        {
            "kind": "RightWall",
            "column": 37,
            "row": 5,
            "width": 1,
            "height": 2
        },
        {
            "kind": "RightWall",
            "column": 36,
            "row": 7,
            "width": 1,
            "height": 2
        },
        {
            "kind": "RightWall",
            "column": 35,
            "row": 9,
            "width": 1,
            "height": 2
        },
        {
            "kind": "RightWall",
            "column": 34,
            "row": 11,
            "width": 1,
            "height": 2
        },
        {
            "kind": "RightWall",
            "column": 33,
            "row": 13,
            "width": 1,
            "height": 2
        },
        {
            "kind": "RightWall",
            "column": 32,
            "row": 15,
            "width": 1,
            "height": 2
        },
        {
            "kind": "Pattern4x4_1",
            "column": 10,
            "row": 2,
            "width": 1,
            "height": 1
        },
        {
            "kind": "Pattern3x3_2",
            "column": 31,
            "row": 2,
            "width": 1,
            "height": 1
        },
        {
            "kind": "Pattern3x3_1",
            "column": 18,
            "row": 3,
            "width": 1,
            "height": 1
        }
    ],
    "movingPlatforms": [],
    "enemies": [],
    "lasers": [],
    "states": [
        {
            "timeResist": false,
            "on": true
        }
    ],
    "forceFields": [
        {
            "methodKind": "State",
            "invertedActivation": true,
            "timeResist": false,
            "column": 7,
            "row": 1,
            "height": 7,
            "mask": 0,
            "state": 0
        },
        {
            "methodKind": "State",
            "invertedActivation": true,
            "timeResist": false,
            "column": 16,
            "row": 1,
            "height": 7,
            "mask": 0,
            "state": 0
        },
        {
            "methodKind": "State",
            "invertedActivation": false,
            "timeResist": false,
            "column": 12,
            "row": 9,
            "height": 8,
            "mask": 0,
            "state": 0
        },
        {
            "methodKind": "Time",
            "invertedActivation": false,
            "timeResist": false,
            "column": 29,
            "row": 9,
            "height": 8,
            "mask": 2,
            "state": 0
        }
    ],
    "disappearingPlatforms": [],
    "buttons": [
        {
            "kind": "TurnsOff",
            "timeResist": false,
            "column": 11,
            "row": 7,
            "state": 0
        }
    ],
    "hourglasses": [
        {
            "timeResist": true,
            "column": 17,
            "row": 14
        },
        {
            "timeResist": true,
            "column": 23,
            "row": 11
        },
        {
            "timeResist": true,
            "column": 25,
            "row": 2
        },
        {
            "timeResist": true,
            "column": 31,
            "row": 10
        },
        {
            "timeResist": true,
            "column": 33,
            "row": 6
        },
        {
            "timeResist": true,
            "column": 35,
            "row": 2
        },
        {
            "timeResist": true,
            "column": 2,
            "row": 4
        },
        {
            "timeResist": true,
            "column": 2,
            "row": 11
        },
        {
            "timeResist": true,
            "column": 8,
            "row": 13
        }
    ],
    "portals": []
}